{
    "count":70906,
    "next":"https://gutendex.com/books/?page=2",
    "previous":null,
    "results":[
        {
            "id":1513,
            "title":"Romeo and Juliet",
            "authors":[
                {
                    "name":"Shakespeare, William",
                    "birth_year":1564,
                    "death_year":1616
                }
            ],
            "translators":[
                
            ],
            "subjects":[
                "Conflict of generations -- Drama",
                "Juliet (Fictitious character) -- Drama",
                "Romeo (Fictitious character) -- Drama",
                "Tragedies",
                "Vendetta -- Drama",
                "Verona (Italy) -- Drama",
                "Youth -- Drama"
            ],
            "bookshelves":[
                
            ],
            "languages":[
                "en"
            ],
            "copyright":false,
            "media_type":"Text",
            "formats":{
                "application/x-mobipocket-ebook":"https://www.gutenberg.org/ebooks/1513.kf8.images",
                "application/epub+zip":"https://www.gutenberg.org/ebooks/1513.epub3.images",
                "text/html":"https://www.gutenberg.org/ebooks/1513.html.images",
                "application/octet-stream":"https://www.gutenberg.org/files/1513/1513-0.zip",
                "image/jpeg":"https://www.gutenberg.org/cache/epub/1513/pg1513.cover.medium.jpg",
                "text/plain":"https://www.gutenberg.org/ebooks/1513.txt.utf-8",
                "text/plain; charset=us-ascii":"https://www.gutenberg.org/files/1513/1513-0.txt",
                "application/rdf+xml":"https://www.gutenberg.org/ebooks/1513.rdf"
            },
            "download_count":103473
        },
        {
            "id":2701,
            "title":"Moby Dick; Or, The Whale",
            "authors":[
                {
                    "name":"Melville, Herman",
                    "birth_year":1819,
                    "death_year":1891
                }
            ],
            "translators":[
                
            ],
            "subjects":[
                "Adventure stories",
                "Ahab, Captain (Fictitious character) -- Fiction",
                "Mentally ill -- Fiction",
                "Psychological fiction",
                "Sea stories",
                "Ship captains -- Fiction",
                "Whales -- Fiction",
                "Whaling -- Fiction",
                "Whaling ships -- Fiction"
            ],
            "bookshelves":[
                "Best Books Ever Listings"
            ],
            "languages":[
                "en"
            ],
            "copyright":false,
            "media_type":"Text",
            "formats":{
                "application/x-mobipocket-ebook":"https://www.gutenberg.org/ebooks/2701.kf8.images",
                "application/epub+zip":"https://www.gutenberg.org/ebooks/2701.epub3.images",
                "image/jpeg":"https://www.gutenberg.org/cache/epub/2701/pg2701.cover.medium.jpg",
                "text/html; charset=utf-8":"https://www.gutenberg.org/files/2701/2701-h/2701-h.htm",
                "text/plain; charset=utf-8":"https://www.gutenberg.org/files/2701/2701-0.txt",
                "text/html":"https://www.gutenberg.org/ebooks/2701.html.images",
                "application/rdf+xml":"https://www.gutenberg.org/ebooks/2701.rdf"
            },
            "download_count":89184
        }
    ]
}
